^C:\GIT\SHIFTED_SDF_WITHVERTEX\SHIFTED_CUDA_SDF\MESH.CPP
/c /I"C:\git\cub-1.5.2" /I"C:\Program Files\NVIDIA GPU Computing Toolkit\CUDA\v8.0\include" /Zi /nologo /W3 /WX- /O2 /Oi /GL /D WIN32 /D NDEBUG /D _CONSOLE /D _UNICODE /D UNICODE /Gm- /EHsc /MD /GS /Gy /fp:precise /Zc:wchar_t /Zc:forScope /Fo"X64\RELEASE\\" /Fd"X64\RELEASE\VC110.PDB" /Gd /TP C:\GIT\SHIFTED_SDF_WITHVERTEX\SHIFTED_CUDA_SDF\MESH.CPP
^C:\GIT\SHIFTED_SDF_WITHVERTEX\SHIFTED_CUDA_SDF\STOPWATCH.CPP
/c /I"C:\git\cub-1.5.2" /I"C:\Program Files\NVIDIA GPU Computing Toolkit\CUDA\v8.0\include" /Zi /nologo /W3 /WX- /O2 /Oi /GL /D WIN32 /D NDEBUG /D _CONSOLE /D _UNICODE /D UNICODE /Gm- /EHsc /MD /GS /Gy /fp:precise /Zc:wchar_t /Zc:forScope /Fo"X64\RELEASE\\" /Fd"X64\RELEASE\VC110.PDB" /Gd /TP C:\GIT\SHIFTED_SDF_WITHVERTEX\SHIFTED_CUDA_SDF\STOPWATCH.CPP
^C:\GIT\SHIFTED_SDF_WITHVERTEX\SHIFTED_CUDA_SDF\TJVECTOR_TYPES.CPP
/c /I"C:\git\cub-1.5.2" /I"C:\Program Files\NVIDIA GPU Computing Toolkit\CUDA\v8.0\include" /Zi /nologo /W3 /WX- /O2 /Oi /GL /D WIN32 /D NDEBUG /D _CONSOLE /D _UNICODE /D UNICODE /Gm- /EHsc /MD /GS /Gy /fp:precise /Zc:wchar_t /Zc:forScope /Fo"X64\RELEASE\\" /Fd"X64\RELEASE\VC110.PDB" /Gd /TP C:\GIT\SHIFTED_SDF_WITHVERTEX\SHIFTED_CUDA_SDF\TJVECTOR_TYPES.CPP
^C:\GIT\SHIFTED_SDF_WITHVERTEX\SHIFTED_CUDA_SDF\TRIANGLE.CPP
/c /I"C:\git\cub-1.5.2" /I"C:\Program Files\NVIDIA GPU Computing Toolkit\CUDA\v8.0\include" /Zi /nologo /W3 /WX- /O2 /Oi /GL /D WIN32 /D NDEBUG /D _CONSOLE /D _UNICODE /D UNICODE /Gm- /EHsc /MD /GS /Gy /fp:precise /Zc:wchar_t /Zc:forScope /Fo"X64\RELEASE\\" /Fd"X64\RELEASE\VC110.PDB" /Gd /TP C:\GIT\SHIFTED_SDF_WITHVERTEX\SHIFTED_CUDA_SDF\TRIANGLE.CPP
^C:\GIT\SHIFTED_SDF_WITHVERTEX\SHIFTED_CUDA_SDF\VERTEX.CPP
/c /I"C:\git\cub-1.5.2" /I"C:\Program Files\NVIDIA GPU Computing Toolkit\CUDA\v8.0\include" /Zi /nologo /W3 /WX- /O2 /Oi /GL /D WIN32 /D NDEBUG /D _CONSOLE /D _UNICODE /D UNICODE /Gm- /EHsc /MD /GS /Gy /fp:precise /Zc:wchar_t /Zc:forScope /Fo"X64\RELEASE\\" /Fd"X64\RELEASE\VC110.PDB" /Gd /TP C:\GIT\SHIFTED_SDF_WITHVERTEX\SHIFTED_CUDA_SDF\VERTEX.CPP
