^C:\GIT\SHIFTED_SDF_WITHVERTEX\SHIFTED_CUDA_SDF\X64\RELEASE\CALCFACENORMAL.CU.OBJ|C:\GIT\SHIFTED_SDF_WITHVERTEX\SHIFTED_CUDA_SDF\X64\RELEASE\CALCMINDISTANCE.CU.OBJ|C:\GIT\SHIFTED_SDF_WITHVERTEX\SHIFTED_CUDA_SDF\X64\RELEASE\CALCSIGN.CU.OBJ|C:\GIT\SHIFTED_SDF_WITHVERTEX\SHIFTED_CUDA_SDF\X64\RELEASE\CALCVERTEXNORMAL.CU.OBJ|C:\GIT\SHIFTED_SDF_WITHVERTEX\SHIFTED_CUDA_SDF\X64\RELEASE\CENTROIDDISTINFO.CU.OBJ|C:\GIT\SHIFTED_SDF_WITHVERTEX\SHIFTED_CUDA_SDF\X64\RELEASE\CUBSHIFTEDSORT.CU.OBJ|C:\GIT\SHIFTED_SDF_WITHVERTEX\SHIFTED_CUDA_SDF\X64\RELEASE\MAIN.CU.OBJ|C:\GIT\SHIFTED_SDF_WITHVERTEX\SHIFTED_CUDA_SDF\X64\RELEASE\MESH.OBJ|C:\GIT\SHIFTED_SDF_WITHVERTEX\SHIFTED_CUDA_SDF\X64\RELEASE\STOPWATCH.OBJ|C:\GIT\SHIFTED_SDF_WITHVERTEX\SHIFTED_CUDA_SDF\X64\RELEASE\TJVECTOR_TYPES.OBJ|C:\GIT\SHIFTED_SDF_WITHVERTEX\SHIFTED_CUDA_SDF\X64\RELEASE\TRIANGLE.OBJ|C:\GIT\SHIFTED_SDF_WITHVERTEX\SHIFTED_CUDA_SDF\X64\RELEASE\VERTEX.OBJ
C:\WINDOWS\SYSTEM32\C_1252.NLS
C:\WINDOWS\GLOBALIZATION\SORTING\SORTDEFAULT.NLS
C:\PROGRAM FILES\NVIDIA GPU COMPUTING TOOLKIT\CUDA\V8.0\LIB\X64\CUDA.LIB
C:\PROGRAM FILES\NVIDIA GPU COMPUTING TOOLKIT\CUDA\V8.0\LIB\X64\CUDART.LIB
C:\PROGRAM FILES (X86)\WINDOWS KITS\8.0\LIB\WIN8\UM\X64\KERNEL32.LIB
C:\PROGRAM FILES (X86)\WINDOWS KITS\8.0\LIB\WIN8\UM\X64\USER32.LIB
C:\PROGRAM FILES (X86)\WINDOWS KITS\8.0\LIB\WIN8\UM\X64\GDI32.LIB
C:\PROGRAM FILES (X86)\WINDOWS KITS\8.0\LIB\WIN8\UM\X64\WINSPOOL.LIB
C:\PROGRAM FILES (X86)\WINDOWS KITS\8.0\LIB\WIN8\UM\X64\COMDLG32.LIB
C:\PROGRAM FILES (X86)\WINDOWS KITS\8.0\LIB\WIN8\UM\X64\ADVAPI32.LIB
C:\PROGRAM FILES (X86)\WINDOWS KITS\8.0\LIB\WIN8\UM\X64\SHELL32.LIB
C:\PROGRAM FILES (X86)\WINDOWS KITS\8.0\LIB\WIN8\UM\X64\OLE32.LIB
C:\PROGRAM FILES (X86)\WINDOWS KITS\8.0\LIB\WIN8\UM\X64\OLEAUT32.LIB
C:\PROGRAM FILES (X86)\WINDOWS KITS\8.0\LIB\WIN8\UM\X64\UUID.LIB
C:\PROGRAM FILES (X86)\WINDOWS KITS\8.0\LIB\WIN8\UM\X64\ODBC32.LIB
C:\PROGRAM FILES (X86)\WINDOWS KITS\8.0\LIB\WIN8\UM\X64\ODBCCP32.LIB
C:\GIT\SHIFTED_SDF_WITHVERTEX\SHIFTED_CUDA_SDF\X64\RELEASE\CALCFACENORMAL.CU.OBJ
C:\GIT\SHIFTED_SDF_WITHVERTEX\SHIFTED_CUDA_SDF\X64\RELEASE\CALCMINDISTANCE.CU.OBJ
C:\GIT\SHIFTED_SDF_WITHVERTEX\SHIFTED_CUDA_SDF\X64\RELEASE\CALCSIGN.CU.OBJ
C:\GIT\SHIFTED_SDF_WITHVERTEX\SHIFTED_CUDA_SDF\X64\RELEASE\CALCVERTEXNORMAL.CU.OBJ
C:\GIT\SHIFTED_SDF_WITHVERTEX\SHIFTED_CUDA_SDF\X64\RELEASE\CENTROIDDISTINFO.CU.OBJ
C:\GIT\SHIFTED_SDF_WITHVERTEX\SHIFTED_CUDA_SDF\X64\RELEASE\CUBSHIFTEDSORT.CU.OBJ
C:\GIT\SHIFTED_SDF_WITHVERTEX\SHIFTED_CUDA_SDF\X64\RELEASE\MAIN.CU.OBJ
C:\GIT\SHIFTED_SDF_WITHVERTEX\SHIFTED_CUDA_SDF\X64\RELEASE\MESH.OBJ
C:\GIT\SHIFTED_SDF_WITHVERTEX\SHIFTED_CUDA_SDF\X64\RELEASE\STOPWATCH.OBJ
C:\GIT\SHIFTED_SDF_WITHVERTEX\SHIFTED_CUDA_SDF\X64\RELEASE\TJVECTOR_TYPES.OBJ
C:\GIT\SHIFTED_SDF_WITHVERTEX\SHIFTED_CUDA_SDF\X64\RELEASE\TRIANGLE.OBJ
C:\GIT\SHIFTED_SDF_WITHVERTEX\SHIFTED_CUDA_SDF\X64\RELEASE\VERTEX.OBJ
C:\PROGRAM FILES (X86)\MICROSOFT VISUAL STUDIO 11.0\VC\BIN\X86_AMD64\C2.DLL
C:\PROGRAM FILES (X86)\MICROSOFT VISUAL STUDIO 11.0\VC\LIB\AMD64\MSVCPRT.LIB
C:\PROGRAM FILES (X86)\MICROSOFT VISUAL STUDIO 11.0\VC\LIB\AMD64\MSVCRT.LIB
C:\PROGRAM FILES (X86)\MICROSOFT VISUAL STUDIO 11.0\VC\LIB\AMD64\OLDNAMES.LIB
C:\PROGRAM FILES (X86)\MICROSOFT VISUAL STUDIO 11.0\VC\BIN\X86_AMD64\1033\LINKUI.DLL
C:\PROGRAM FILES (X86)\WINDOWS KITS\8.0\BIN\X86\RC.EXE
C:\PROGRAM FILES (X86)\MICROSOFT VISUAL STUDIO 11.0\VC\BIN\CVTRES.EXE
C:\WINDOWS\SYSTEM32\TZRES.DLL
